%YAML 1.1
%TAG !u! tag:unity3d.com,2011:
--- !u!1045 &1
EditorBuildSettings:
  m_ObjectHideFlags: 0
  serializedVersion: 2
  m_Scenes:
  - enabled: 1
    path: Assets/Scenes/Level 1.unity
    guid: 0f298cce4e0d76e49a433a4c60c2bbd9
  - enabled: 1
    path: Assets/Scenes/Level 2.unity
    guid: 8b38b81cdb0a9f540a6eb43ae77f7a48
  - enabled: 1
    path: Assets/Scenes/Level 3.unity
    guid: d2dea4368ac98c04ca74a4d7398158cc
  - enabled: 1
    path: Assets/Scenes/You win.unity
    guid: 8601421576f032d478cfa25792db2dc4
  m_configObjects: {}
