%YAML 1.1
%TAG !u! tag:unity3d.com,2011:
--- !u!1045 &1
EditorBuildSettings:
  m_ObjectHideFlags: 0
  serializedVersion: 2
  m_Scenes:
  - enabled: 1
    path: Assets/Scenes/MainMenu.unity
    guid: 460d50b7b04a38844bc867edab3a3d1a
  - enabled: 1
    path: Assets/Scenes/Level 1.unity
    guid: 6951a4b2e7da9e340b4c14bce21e408f
  - enabled: 1
    path: Assets/Scenes/Level 2.unity
    guid: 8231aee094c437b4e918f730a7042ded
  - enabled: 1
    path: Assets/Scenes/Level 3.unity
    guid: 49cde6edd78c17c4b8e411491f066be4
  - enabled: 1
    path: Assets/Scenes/You Win.unity
    guid: 3cb05e7a42f48684facb7d63d5f53a33
  m_configObjects: {}
